﻿screen>>>  สร้าง session ใหม่ขึ้นมา
Ctrl +A , Ctrl+D >>> ย่อSession
screen -r >> กลับไปหน้าเดิม

2480.pts-0.sam  (01/30/2020 03:48:00 PM)        (Detached)
  2382.pts-0.sam  (01/30/2020 03:43:58 PM)        (Detached)
screen -r  2382.pts-0.sam
kill session >>> Ctrl + A , Shift + K , Y